<svg width="51" height="22" viewBox="0 0 51 22" fill="none" xmlns="http://www.w3.org/2000/svg">
<path d="M11.8379 1.27792L14.1063 6.26615C14.46 7.04082 15.1936 7.57341 16.0392 7.6704L21.4835 8.28619C21.7993 8.32207 22.065 8.5389 22.1632 8.84088C22.2613 9.14325 22.1738 9.4748 21.9393 9.68926L17.8968 13.3872H17.8972C17.2699 13.962 16.9904 14.8233 17.1607 15.6567L18.2567 21.0247C18.3205 21.3361 18.1967 21.6558 17.9397 21.8431C17.6827 22.03 17.3401 22.0493 17.0637 21.8924L12.2951 19.1891C11.5535 18.7705 10.6476 18.7705 9.90604 19.1891L5.13974 21.8948C4.86338 22.0513 4.5208 22.032 4.26376 21.8451C4.00671 21.6582 3.88254 21.3385 3.9464 21.0271L5.04273 15.6569C5.21147 14.8227 4.93155 13.9604 4.30394 13.3853L0.261462 9.68734H0.261856C0.0288647 9.47327 -0.0578688 9.1433 0.0391184 8.84211C0.1361 8.54131 0.399445 8.32409 0.713256 8.28624L6.15756 7.67045C7.00319 7.57347 7.73651 7.04086 8.09004 6.2662L10.3585 1.27797C10.489 0.986634 10.7787 0.798584 11.0981 0.798584C11.4178 0.798584 11.7072 0.986634 11.8376 1.27797L11.8379 1.27792Z" fill="#FFD700"/>
<path d="M39.6332 1.27803L41.9016 6.26627C42.2552 7.04094 42.9889 7.57353 43.8345 7.67052L49.2832 8.28631C49.5989 8.32219 49.8646 8.53901 49.9628 8.841C50.061 9.14337 49.9735 9.47491 49.7389 9.68938L45.6964 13.3873H45.6968C45.0684 13.9613 44.7865 14.8223 44.9537 15.6569L46.0496 21.0248H46.05C46.1139 21.3362 45.9897 21.6559 45.7326 21.8432C45.4756 22.0301 45.133 22.0494 44.8566 21.8925L40.0903 19.1893C39.3488 18.7706 38.4429 18.7706 37.7013 19.1893L32.935 21.8949C32.6586 22.0514 32.316 22.0321 32.059 21.8452C31.802 21.6584 31.6778 21.3386 31.7416 21.0272L32.8356 15.657C33.0064 14.8224 32.7257 13.9598 32.0973 13.3854L28.0548 9.68746C27.8202 9.473 27.7331 9.14105 27.8312 8.83908C27.9294 8.5367 28.1951 8.31988 28.5109 8.28439L33.9552 7.6686L33.9548 7.6682C34.8008 7.57162 35.5341 7.03861 35.8877 6.26436L38.1562 1.27613C38.2874 0.985971 38.5768 0.79989 38.8953 0.800294C39.2139 0.800688 39.5025 0.987557 39.6329 1.27811L39.6332 1.27803Z" fill="#FFD700"/>
</svg>
