<svg width="40" height="40" viewBox="0 0 40 40" fill="none" xmlns="http://www.w3.org/2000/svg">
<path d="M19.9997 0C8.97196 0 0 8.97196 0 20C0 31.0284 8.97196 40 19.9997 40C31.0277 40 40 31.0284 40 20C39.9997 8.97196 31.0274 0 19.9997 0ZM19.9997 38.0274C10.0595 38.0274 1.97258 29.9405 1.97258 20C1.97258 10.0598 10.0595 1.97258 19.9997 1.97258C29.9398 1.97258 38.0274 10.0598 38.0274 20C38.0271 29.9405 29.9398 38.0274 19.9997 38.0274Z" fill="#DE3E69"/>
<path d="M12.1497 13.4552C12.1555 13.444 12.1653 13.4353 12.1771 13.4306C13.5472 12.8156 14.993 12.3771 16.4783 12.126C16.4918 12.1236 16.5058 12.1254 16.5182 12.1311C16.5306 12.1368 16.5408 12.1463 16.5474 12.158C16.7443 12.5076 16.923 12.8666 17.0829 13.2338C18.684 12.9961 20.3127 12.9961 21.9138 13.2338C22.0748 12.8657 22.2564 12.5066 22.4578 12.158C22.4647 12.1465 22.475 12.1373 22.4873 12.1316C22.4996 12.1259 22.5134 12.124 22.5269 12.126C24.0124 12.3766 25.4583 12.8151 26.8282 13.4306C26.8399 13.4355 26.8498 13.4438 26.8565 13.4544C29.596 17.4565 30.3464 21.3602 29.9783 25.2156C29.9773 25.225 29.9743 25.2342 29.9696 25.2425C29.9648 25.2508 29.9585 25.2581 29.9508 25.2639C28.3556 26.4193 26.5714 27.3013 24.6743 27.8721C24.6609 27.876 24.6466 27.8759 24.6334 27.8716C24.6201 27.8674 24.6085 27.8592 24.6001 27.8483C24.1927 27.306 23.8316 26.7317 23.5207 26.1312C23.5164 26.123 23.514 26.114 23.5135 26.1047C23.5131 26.0955 23.5146 26.0863 23.5181 26.0777C23.5216 26.0691 23.5268 26.0613 23.5336 26.0549C23.5404 26.0484 23.5484 26.0434 23.5573 26.0403C24.1266 25.8272 24.6778 25.5703 25.2057 25.272C25.2153 25.2665 25.2233 25.2587 25.2291 25.2495C25.2349 25.2402 25.2383 25.2296 25.239 25.2188C25.2396 25.2079 25.2375 25.1971 25.2329 25.1872C25.2282 25.1773 25.2212 25.1687 25.2123 25.1621C25.1016 25.0809 24.9907 24.9965 24.885 24.9112C24.8756 24.9036 24.8642 24.8988 24.8521 24.8972C24.8401 24.8956 24.8278 24.8973 24.8167 24.9022C21.3585 26.4461 17.6145 26.4461 14.1972 24.9022C14.186 24.897 14.1736 24.895 14.1614 24.8965C14.1491 24.8979 14.1376 24.9027 14.128 24.9104C14.0222 24.9957 13.9114 25.0809 13.7998 25.1621C13.7909 25.1686 13.7838 25.1772 13.7791 25.187C13.7744 25.1969 13.7722 25.2077 13.7728 25.2186C13.7733 25.2294 13.7766 25.24 13.7824 25.2493C13.7881 25.2586 13.7961 25.2664 13.8057 25.272C14.3323 25.5728 14.884 25.8295 15.4548 26.0395C15.4637 26.0428 15.4717 26.0478 15.4785 26.0544C15.4852 26.061 15.4904 26.0688 15.4938 26.0775C15.4972 26.0862 15.4987 26.0954 15.4981 26.1047C15.4976 26.1139 15.4951 26.123 15.4908 26.1312C15.1746 26.7283 14.8141 27.3019 14.4121 27.8474C14.404 27.8586 14.3924 27.867 14.3791 27.8714C14.3658 27.8758 14.3514 27.876 14.338 27.872C12.4375 27.3031 10.6501 26.4211 9.05295 25.2639C9.04517 25.2584 9.0387 25.2512 9.03396 25.243C9.02922 25.2348 9.02632 25.2258 9.02546 25.2164C8.58472 20.7592 9.76333 16.8874 12.1497 13.4552ZM23.0042 22.868C24.0454 22.868 24.9033 21.9333 24.9033 20.7854C24.9033 19.6375 24.062 18.7027 23.0042 18.7027C21.9381 18.7027 21.0885 19.6456 21.1052 20.7854C21.1052 21.9333 21.9465 22.868 23.0042 22.868ZM15.9827 22.868C17.0239 22.868 17.8818 21.9333 17.8818 20.7854C17.8818 19.6375 17.0405 18.7027 15.9827 18.7027C14.9166 18.7027 14.067 19.6456 14.0837 20.7854C14.0837 21.9333 14.9166 22.868 15.9827 22.868Z" fill="#220C37"/>
</svg>
