<svg width="30" height="30" viewBox="0 0 30 30" fill="none" xmlns="http://www.w3.org/2000/svg">
<circle cx="15" cy="15" r="15" fill="#552684"/>
<path d="M23.0001 15.5711L21.3931 16.6431V12.357L23.0001 13.4286V15.5711Z" fill="#FDF7F5" stroke="#FDF7F5" stroke-width="0.400004" stroke-miterlimit="10" stroke-linecap="round" stroke-linejoin="round"/>
<path d="M8 12.3571H13.3575V16.6431H8V12.3571Z" fill="#FDF7F5" stroke="#FDF7F5" stroke-width="0.400004" stroke-miterlimit="10" stroke-linecap="round" stroke-linejoin="round"/>
<path d="M21.3933 22.0001L13.3574 16.6431V12.357L21.3933 6.99997V22.0001Z" fill="#FDF7F5" stroke="#FDF7F5" stroke-width="0.400004" stroke-miterlimit="10" stroke-linecap="round" stroke-linejoin="round"/>
<path d="M10.4106 16.6431V21.1967C10.4106 21.6405 10.7706 22.0006 11.2145 22.0006C11.6583 22.0006 12.0181 21.6407 12.0181 21.1967H12.0182V16.6431H10.4106Z" fill="#FDF7F5" stroke="#FDF7F5" stroke-width="0.400004" stroke-miterlimit="10" stroke-linecap="round" stroke-linejoin="round"/>
</svg>
