<svg width="334" height="474" viewBox="0 0 334 474" fill="none" xmlns="http://www.w3.org/2000/svg">
<path d="M-158.29 153.894C25.0222 137.053 121.685 41.844 152.379 5.36278C155.198 1.93083 159.42 -0.0425771 163.858 0.000697131C168.3 0.0400093 172.483 2.08813 175.239 5.5712C194.985 30.6169 213.127 56.8885 229.553 84.2297C231.09 86.7929 230.936 90.0321 229.167 92.442L210.644 117.57C207.22 122.205 211.061 128.743 216.619 127.729L246.205 122.378V122.382C249.149 121.863 252.098 123.29 253.513 125.924C292.667 197.778 319.82 266.213 331.664 298.156C333.586 303.278 333.634 308.919 331.802 314.077C329.966 319.234 326.365 323.574 321.635 326.334C294.911 341.556 238.409 374.68 168.112 421.425C164.126 424.079 160.077 426.587 156.005 428.965H156.008C153.249 430.6 149.726 430.113 147.521 427.786L119.905 398.825C115.974 394.697 109.216 398.318 110.195 404.022L116.701 441.6C117.307 445.056 115.384 448.456 112.109 449.714C59.5816 469.417 7.33545 473.05 -20.8935 473.337C-27.1794 473.361 -33.3242 471.478 -38.5172 467.939C-43.7103 464.401 -47.7082 459.37 -49.9848 453.512C-63.8225 418.851 -81.3315 375.942 -98.7902 333.532H-98.7941C-99.7612 331.157 -99.4427 328.449 -97.945 326.365L-87.2008 311.517C-83.0181 305.75 -87.0043 297.581 -93.9585 297.636L-108.885 297.746C-111.739 297.742 -114.306 295.997 -115.36 293.343C-137.57 239.694 -157.616 191.739 -167.149 168.965C-168.482 165.796 -168.238 162.18 -166.496 159.216C-164.755 156.248 -161.716 154.278 -158.296 153.897L-158.29 153.894ZM200.847 287.863H201.208L213.316 288.535L212.601 301.017H212.604C212.172 306.984 216.559 312.217 222.511 312.838H222.865H222.861C228.99 313.081 234.16 308.321 234.418 302.192L235.134 289.711L247.241 290.383C253.295 290.485 258.351 285.792 258.697 279.746C259.043 273.704 254.557 268.463 248.531 267.874L236.423 267.201L237.138 254.72C237.394 251.772 236.442 248.851 234.504 246.614C232.566 244.381 229.807 243.029 226.854 242.864C223.902 242.699 221.009 243.74 218.835 245.745C216.661 247.75 215.395 250.553 215.32 253.509L214.605 265.99L202.497 265.318C196.486 265.177 191.415 269.772 190.975 275.771C190.535 281.77 194.879 287.062 200.846 287.797L200.847 287.863ZM172.546 230.956L176.698 234.466C179.461 236.833 181.014 238.484 181.034 238.496L184.788 242.482V242.478C185.794 243.551 187.19 244.164 188.656 244.184C190.126 244.2 191.538 243.622 192.572 242.58L200.355 234.875H200.351C202.553 232.673 202.628 229.128 200.517 226.84L196.798 222.845V222.842C194.875 220.844 192.851 218.95 190.732 217.161L186.581 213.595C185.464 212.636 184.002 212.172 182.535 212.318C181.065 212.459 179.721 213.198 178.813 214.354L171.866 222.94C169.909 225.365 170.211 228.899 172.546 230.955L172.546 230.956ZM49.2649 273.884L44.862 263.69C44.3037 262.326 43.2109 261.253 41.8428 260.71C40.4709 260.168 38.9417 260.207 37.5972 260.816L32.6439 263.085C28.9093 264.818 24.9938 266.131 20.9679 267.004L15.6608 268.105C12.6339 268.801 10.7115 271.784 11.3365 274.831L13.4594 285.752V285.748C13.7267 287.199 14.5641 288.484 15.7827 289.31C17.0052 290.139 18.507 290.442 19.9536 290.151L25.2607 289.051C30.8351 287.848 36.2604 286.035 41.4412 283.645L46.3945 281.365V281.369C49.2407 280.072 50.538 276.742 49.3192 273.861L49.2649 273.884ZM163.72 135.497C162.828 121.934 156.809 102.651 131.603 93.7238H131.599C126.461 91.9548 120.772 92.9454 116.53 96.3459L95.2072 113.065H95.2111C90.8946 116.505 88.4927 121.812 88.76 127.327C89.0234 132.839 91.9246 137.89 96.5516 140.901C109.154 148.858 127.58 156.488 149.386 153.438C153.593 152.797 157.406 150.596 160.059 147.27C162.717 143.944 164.022 139.742 163.719 135.496L163.72 135.497ZM113.869 201.32L115.269 212.328H115.265C115.422 213.802 116.165 215.15 117.333 216.07C118.496 216.986 119.982 217.395 121.453 217.206L126.815 216.459L126.811 216.455C130.766 215.905 134.771 215.862 138.734 216.333L144.104 216.962C147.182 217.265 149.922 215.02 150.237 211.942L151.491 200.892C151.888 197.822 149.726 195.011 146.66 194.606L141.29 193.989H141.286C135.538 193.321 129.728 193.38 123.996 194.166L118.626 194.913L118.622 194.917C115.56 195.4 113.445 198.247 113.869 201.321L113.869 201.32ZM91.5368 237.271L95.2557 233.21C97.3588 230.906 97.2684 227.356 95.0552 225.163L87.1968 217.524C86.1432 216.498 84.7163 215.944 83.2459 215.995C81.7757 216.046 80.388 216.691 79.4052 217.788L75.6863 221.849H75.6824C72.0343 225.862 68.6181 230.084 65.4455 234.488L62.2102 238.977C60.3861 241.497 60.8697 245.008 63.311 246.934L71.9832 253.538H71.9871C73.1586 254.427 74.6406 254.8 76.0912 254.572C77.5457 254.348 78.843 253.542 79.6921 252.339L82.9274 247.85C85.5927 244.162 88.4664 240.632 91.5328 237.271H91.5368ZM2.37772 392.605C13.0665 399.32 29.8408 407.257 47.1656 405.24C52.8737 404.556 57.9922 401.396 61.1643 396.6C66.1411 389.181 72.47 375.686 71.4998 356.006C71.3387 351.293 69.4988 346.792 66.3147 343.313C63.1304 339.838 58.8101 337.609 54.1324 337.027C42.543 335.706 26.0756 335.002 11.5576 338.702C7.87808 339.657 4.54437 341.63 1.93805 344.39C-0.672302 347.154 -2.44916 350.593 -3.19217 354.32L-6.573 371.185C-7.42606 375.246 -7.02115 379.468 -5.4173 383.297C-3.80939 387.122 -1.07727 390.369 2.42151 392.606L2.37772 392.605ZM-40.3229 272.111L-35.7981 275.193C-33.5967 276.668 -31.3952 278.067 -29.1387 279.345L-24.4292 282.053V282.049C-23.1398 282.765 -21.6223 282.934 -20.2071 282.521C-18.7959 282.108 -17.6086 281.145 -16.9089 279.848L-11.6136 270.083V270.087C-10.1315 267.371 -11.0594 263.966 -13.7168 262.382L-18.4381 259.673C-20.211 258.651 -22.0037 257.527 -23.7766 256.371L-28.2896 253.332C-29.5162 252.511 -31.0218 252.228 -32.4645 252.538C-33.9033 252.853 -35.1573 253.741 -35.9318 254.995L-41.8993 264.34H-41.8954C-43.5072 266.938 -42.8152 270.343 -40.3229 272.112V272.111ZM-98.252 234.742L-64.1298 242.71C-62.9898 242.946 -61.8065 242.592 -60.9809 241.767C-60.1593 240.941 -59.8055 239.758 -60.0453 238.618L-66.748 203.174H-66.7519C-66.9288 201.916 -67.8094 200.874 -69.0163 200.489C-70.227 200.104 -71.5479 200.446 -72.4207 201.366L-99.8757 228.837L-99.8717 228.841C-100.764 229.737 -101.11 231.042 -100.776 232.261C-100.442 233.479 -99.4786 234.427 -98.2521 234.741L-98.252 234.742Z" fill="#552684"/>
</svg>
